Place,Name,Sex,Event,Division,WeightClassKg,Equipment,BirthYear,State,BodyweightKg,Squat1Kg,Squat2Kg,Squat3Kg,Best3SquatKg,Bench1Kg,Bench2Kg,Bench3Kg,Best3BenchKg,Deadlift1Kg,Deadlift2Kg,Deadlift3Kg,Best3DeadliftKg,TotalKg
1,Trinh Nguyen,F,B,FR-Jr,57,Raw,1996,CA,56.3,,,,,45,50,52.5,52.5,,,,,52.5
1,Dan Boskovich,M,B,MR-M3a,74,Raw,1956,CA,73,,,,,92.5,97.5,100,100,,,,,100
1,Marilyn Katzmark,F,D,FR-M4b,72,Raw,1939,CA,69,,,,,,,,,112.5,117.5,122.5,122.5,122.5
1,Brenna Patterson,F,SBD,FR-Jr,63,Raw,1995,CA,62.5,140,150,155,155,90,95,97.5,97.5,165,175,182.5,182.5,435
1,Jennifer Gomez,F,SBD,FR-Jr,72,Raw,1996,CA,66.9,102.5,110,115,115,47.5,52.5,55,55,110,125,-137.5,125,295
1,Giselle De La Torre Pinedo,F,SBD,FR-Jr,84+,Raw,1997,CA,86.4,50,55,62.5,62.5,50,57.5,-65,57.5,60,67.5,77.5,77.5,197.5
1,Corey Villalpando,F,SBD,FR-M1b,72,Raw,1971,CA,71.4,77.5,80,85,85,37.5,40,-42.5,40,92.5,97.5,102.5,102.5,227.5
1,Melissa Fulgencio,F,SBD,FR-O,52,Raw,1985,CA,51.8,115,117.5,-120,117.5,62.5,67.5,-70,67.5,152.5,160,167.5,167.5,352.5
2,Elizabeth Picardi,F,SBD,FR-O,52,Raw,1990,CA,52,100,110,,110,60,65,,65,130,145,,145,320
3,Megan Bibbo,F,SBD,FR-O,52,Raw,1988,CA,52,80,85,87.5,87.5,45,47.5,-55,47.5,102.5,112.5,117.5,117.5,252.5
1,Aneliah Enriquez,F,SBD,FR-O,57,Raw,1988,CA,55.8,90,95,-100,95,32.5,35,-37.5,35,102.5,110,115,115,245
1,Mayra Ramirez,F,SBD,FR-O,63,Raw,1990,CA,61,85,90,95,95,40,42.5,47.5,47.5,110,115,120,120,262.5
2,Hareem Gauhar,F,SBD,FR-O,63,Raw,1992,CA,62.8,85,90,97.5,97.5,42.5,-45,-50,42.5,112.5,122.5,-127.5,122.5,262.5
3,Danielle Lagria,F,SBD,FR-O,63,Raw,1990,CA,61.3,80,85,-92.5,85,42.5,-45,45,45,90,95,100,100,230
1,Kristen Dunsmore,F,SBD,FR-O,72,Raw,1989,NY,68.5,167.5,175,182.5,182.5,100,-105,-105,100,190,200,-210,200,482.5
2,Toni Indelicato,F,SBD,FR-O,72,Raw,1994,CA,71.4,117.5,122.5,127.5,127.5,60,65,70,70,132.5,140,145,145,342.5
3,Sarah Grunden,F,SBD,FR-O,72,Raw,1984,CA,66.3,100,105,-107.5,105,42.5,47.5,52.5,52.5,95,102.5,107.5,107.5,265
1,Samantha Verdugo,F,SBD,FR-O,84,Raw,1992,CA,77.7,132.5,140,-147.5,140,65,70,72.5,72.5,147.5,157.5,160,160,372.5
1,Hillary Beard,F,SBD,FR-O,84+,Raw,1990,CA,93.8,145,152.5,155,155,75,80,85,85,170,182.5,187.5,187.5,427.5
2,Natalie Parker #2,F,SBD,FR-O,84+,Raw,1994,CA,92.4,112.5,120,127.5,127.5,-60,60,-65,60,140,147.5,-160,147.5,335
3,Jennifer Kelly,F,SBD,FR-O,84+,Raw,1991,CA,115.6,85,95,105,105,45,50,-60,50,85,95,105,105,260
1,Brian Wilcox,M,SBD,MR-Jr,66,Raw,1995,CA,63.97,125,140,150,150,97.5,105,-110,105,180,190,195,195,450
1,Jonathan Hurley,M,SBD,MR-Jr,74,Raw,1995,CA,73.7,160,-165,167.5,167.5,87.5,90,95,95,205,210,217.5,217.5,480
1,Qi Jing Yap,M,SBD,MR-Jr,83,Raw,1996,CA,79,137.5,147.5,157.5,157.5,87.5,95,100,100,172.5,182.5,190,190,447.5
1,Ronald Siu,M,SBD,MR-Jr,93,Raw,1994,CA,92.5,202.5,210,215,215,125,130,-132.5,130,215,230,242.5,242.5,587.5
2,Kevin Nguyen #2,M,SBD,MR-Jr,93,Raw,1995,CA,88.5,192.5,205,215,215,105,112.5,117.5,117.5,197.5,210,220,220,552.5
3,Won Choi,M,SBD,MR-Jr,93,Raw,1995,CA,86.94,142.5,152.5,162.5,162.5,87.5,95,100,100,200,212.5,220,220,482.5
1,Quinn Clarke,M,SBD,MR-Jr,120+,Raw,1995,CA,148.2,285,300,-310,300,207.5,217.5,-227.5,217.5,250,262.5,-277.5,262.5,780
1,Roylando Jeffery,M,S,MR-M1a,120,Raw,1976,CA,119.78,145,152.5,162.5,162.5,,,,,,,,,162.5
1,Grant Higa,M,SBD,MR-M1b,120+,Raw,1970,WA,138,295,307.5,317.5,317.5,190,197.5,-210,197.5,312.5,325,-330,325,840
1,James Pagnanelli,M,SBD,MR-M2b,93,Raw,1963,CA,89.64,-137.5,137.5,147.5,147.5,120,127.5,,127.5,150,165,-180,165,440
1,Michael Martini,M,SBD,MR-M2a,105,Raw,1968,CA,104.78,165,-185,195,195,115,127.5,137.5,137.5,145,165,-185,165,497.5
1,Willie Wong,M,SBD,MR-M2b,83,Raw,1961,CA,82.7,162.5,-175,175,175,95,-100,100,100,175,185,,185,460
1,James Darden,M,SBD,MR-M2b,105,Raw,1961,CA,98.4,195,205,215,215,105,112.5,115,115,187.5,197.5,202.5,202.5,532.5
1,Shorty Sadang,M,SBD,MR-O,59,Raw,1988,CA,58.4,167.5,182.5,187.5,187.5,127.5,137.5,142.5,142.5,195,210,-227.5,210,540
1,David Dinh,M,SBD,MR-O,66,Raw,1990,CA,64.22,162.5,172.5,177.5,177.5,117.5,125,127.5,127.5,225,-235,-235,225,530
1,Keith Mosoti,M,SBD,MR-O,74,Raw,1994,CA,73.28,127.5,135,140,140,85,90,95,95,152.5,162.5,175,175,410
1,Peter Le,M,SBD,MR-O,83,Raw,1982,CA,82.5,195,205,-212.5,205,165,-172.5,-172.5,165,230,247.5,-275,247.5,617.5
2,Christopher Lau,M,SBD,MR-O,83,Raw,1991,CA,81.65,190,197.5,-207.5,197.5,105,110,-115,110,222.5,232.5,240,240,547.5
3,Tai Bui,M,SBD,MR-O,83,Raw,1987,CA,77.7,140,147.5,155,155,85,92.5,100,100,175,187.5,195,195,450
1,Adam Martinez,M,SBD,MR-O,93,Raw,1991,CA,92.5,260,272.5,282.5,282.5,162.5,-170,-170,162.5,260,275,285,285,730
2,Edward Alicdan Jr,M,SBD,MR-O,93,Raw,1992,CA,92.38,230,-247.5,247.5,247.5,165,175,-177.5,175,290,-300,300,300,722.5
3,Brandon Smith,M,SBD,MR-O,93,Raw,1989,CA,92.2,220,230,242.5,242.5,152.5,-160,160,160,255,275,290,290,692.5
4,Tanner Owings,M,SBD,MR-O,93,Raw,1993,CA,92,210,220,232.5,232.5,130,137.5,142.5,142.5,257.5,270,285,285,660
5,Achidi Ndiforchu,M,SBD,MR-O,93,Raw,1984,CA,90.1,207.5,215,230,230,125,132.5,140,140,260,270,-277.5,270,640
6,Joseph Olmeda,M,SBD,MR-O,93,Raw,1991,CA,83.5,197.5,210,217.5,217.5,140,-150,-150,140,230,240,252.5,252.5,610
7,Joshua Elliott,M,SBD,MR-O,93,Raw,1994,CA,90.8,182.5,192.5,205,205,125,135,-137.5,135,215,227.5,237.5,237.5,577.5
1,Mason Raasch,M,SBD,MR-O,105,Raw,1994,CA,102.87,205,-222.5,227.5,227.5,105,115,122.5,122.5,225,252.5,-272.5,252.5,602.5
2,Nathan Lau,M,SBD,MR-O,105,Raw,1988,CA,103.13,192.5,202.5,-207.5,202.5,115,125,132.5,132.5,220,227.5,237.5,237.5,572.5
3,Louis Lu,M,SBD,MR-O,105,Raw,1990,CA,93.18,175,-190,190,190,135,145,-152.5,145,195,215,225,225,560
4,Wilmer Zavala,M,SBD,MR-O,105,Raw,1991,CA,99.65,170,172.5,190,190,107.5,115,120,120,177.5,187.5,200,200,510
1,Aaron Terry,M,SBD,MR-O,120,Raw,1989,CA,116.13,290,307.5,317.5,317.5,185,192.5,200,200,315,330,-342.5,330,847.5
2,Manveer Sadhal,M,SBD,MR-O,120,Raw,1985,CA,109.3,245,262.5,270,270,165,170,175,175,75,,,75,520
3,Brendan Loper,M,SBD,MR-O,120,Raw,1985,CA,106.4,137.5,145,155,155,102.5,107.5,-112.5,107.5,162.5,170,180,180,442.5
DQ,Robert Osborn,M,SBD,MR-O,120,Raw,1994,CA,113.5,170,180,187.5,187.5,-125,-125,-125,,260,267.5,-272.5,267.5,
1,Kanyon Khuu,M,SBD,MR-T2,74,Raw,2002,CA,70.4,115,120,130,130,75,82.5,87.5,87.5,150,165,170,170,387.5
1,Kianoush Kermani,M,SBD,MR-T3,83,Raw,1999,CA,81.45,185,197.5,-207.5,197.5,130,-137.5,140,140,215,227.5,240,240,577.5
1,Ross Harms,M,BD,MR-M1a,74,Raw,1978,CA,73.6,,,,,97.5,102.5,105,105,130,142.5,155,155,260
