Event,Sex,Name,Country,State,BodyweightKg,WeightClassKg,Division,Best3SquatKg,Best3BenchKg,Best3DeadliftKg,TotalKg,Equipment,Place
SBD,M,Ryan Doern,,BC,89.3,90,Open,265,162.5,270,697.5,Single-ply,2
SBD,M,Paul Gidney,,NS,89.45,90,Open,222.5,162.5,265,650,Single-ply,3
SBD,M,Jeff Becker,,ON,87.65,90,Open,285,180,285,750,Single-ply,1
SBD,M,Graham Greening,,AB,89.8,90,Open,215,162.5,255,632.5,Single-ply,4
SBD,M,Steve Powell,,NL,82.2,82.5,Open,235,160,272.5,667.5,Single-ply,2
SBD,M,Rémi Fortier,,QC,82,82.5,Open,250,180,275,705,Single-ply,1
SBD,M,Joe Broadbent,,NL,79.85,82.5,Open,210,117.5,182.5,510,Single-ply,5
SBD,M,Jeff Butt,,SK,82.45,82.5,Open,240,177.5,250,667.5,Single-ply,3
SBD,M,Hoi Leung,,ON,81.75,82.5,Open,240,130,242.5,612.5,Single-ply,4
SBD,M,Scott Maslascz,,SK,73.3,75,Open,150,107.5,160,417.5,Single-ply,3
SBD,M,Rick Marshall #1,,MB,74.55,75,Open,222.5,167.5,260,650,Single-ply,1
SBD,M,Len Krekic,,BC,69,75,Open,187.5,112.5,200,500,Single-ply,2
SBD,M,John-S Rheume,,QC,63.8,67.5,Open,152.5,125,175,452.5,Single-ply,5
SBD,M,Jamie Dougall,,BC,67.4,67.5,Open,167.5,107.5,217.5,492.5,Single-ply,4
SBD,M,Bryan Brothers,,BC,67.25,67.5,Open,197.5,115,230,542.5,Single-ply,1
SBD,M,Brian Bacon,,BC,67.1,67.5,Open,195,120,207.5,522.5,Single-ply,3
SBD,M,Allan Gallant,,AB,66.85,67.5,Open,190,135,205,530,Single-ply,2
SBD,M,Jim Jong,,ON,59,60,Open,182.5,137.5,217.5,537.5,Single-ply,1
SBD,M,Tim Vandergrift,,BC,129.8,125+,Open,235,150,272.5,657.5,Single-ply,3
SBD,M,Brian Duguay,,ON,150.05,125+,Open,305,200,272.5,777.5,Single-ply,1
SBD,M,Brad Giffen,,AB,136,125+,Open,280,137.5,255,672.5,Single-ply,2
SBD,M,Steve Campbell,,NL,122.85,125,Open,265,187.5,272.5,725,Single-ply,1
SBD,M,Keith Banner,,AB,111.7,125,Open,272.5,155,275,702.5,Single-ply,3
SBD,M,Gerald O'Halloran,,PE,123.9,125,Open,275,175,237.5,687.5,Single-ply,4
SBD,M,Denis Chassé,,QC,117.15,125,Open,250,170,225,645,Single-ply,5
SBD,M,Brock Haywood,,MB,122.45,125,Open,285,167.5,255,707.5,Single-ply,2
SBD,M,Ralph Celio,,ON,110,110,Open,325,200,300,825,Single-ply,1
SBD,M,Paul Wells,,BC,105.75,110,Open,195,125,200,520,Single-ply,4
SBD,M,Jay Gemmel,,ON,108.6,110,Open,270,185,277.5,732.5,Single-ply,2
SBD,M,Daniel Royer,,QC,109.05,110,Open,220,202.5,240,662.5,Single-ply,3
SBD,M,Tony Tomra,,BC,98.9,100,Open,260,157.5,247.5,665,Single-ply,6
SBD,M,Tom Nicholls,,PE,99.9,100,Open,287.5,207.5,322.5,817.5,Single-ply,1
SBD,M,Stephen McKenzie,,ON,98.65,100,Open,290,165,295,750,Single-ply,2
SBD,M,Paul Williams #1,,NL,98.15,100,Open,272.5,155,260,687.5,Single-ply,5
SBD,M,Les Kiss,,ON,99,100,Open,260,180,260,700,Single-ply,4
SBD,M,Jimmy Häll,,AB,99.85,100,Open,275,180,267.5,722.5,Single-ply,3
SBD,M,Garry Holmen,,AB,93.35,100,Open,217.5,122.5,230,570,Single-ply,8
SBD,M,Dave Miller,,BC,92.65,100,Open,212.5,142.5,240,595,Single-ply,7
SBD,M,Tilman Gallant,,PE,86.1,90,Masters 2,185,160,200,545,Single-ply,1
SBD,M,Robert O. Smith,,BC,128,125+,Masters 2,230,187.5,252.5,670,Single-ply,1
SBD,M,Hal Mulholland,USA,IN,108.65,110,Masters 2,235,160,270,665,Single-ply,1
SBD,M,Bert Merriman,,MB,108.25,110,Masters 2,230,175,230,635,Single-ply,2
SBD,M,John Fraser,,NS,85,90,Masters 1,230,172.5,252.5,655,Single-ply,1
SBD,M,Louis Lévesque,,QC,81.3,82.5,Masters 1,197.5,122.5,197.5,517.5,Single-ply,4
SBD,M,Jerry Marentette,,ON,82.05,82.5,Masters 1,217.5,155,262.5,635,Single-ply,1
SBD,M,Dan Kram,,BC,82.5,82.5,Masters 1,217.5,160,210,587.5,Single-ply,2
SBD,M,Archie Ulry,,AB,81.9,82.5,Masters 1,200,110,237.5,547.5,Single-ply,3
SBD,M,Brent Davis,,BC,74.8,75,Masters 1,205,120,237.5,562.5,Single-ply,2
SBD,M,Bob Mann,,MB,74.6,75,Masters 1,182.5,145,212.5,540,Single-ply,3
SBD,M,Bob Hindley,,BC,74.95,75,Masters 1,237.5,125,255,617.5,Single-ply,1
SBD,M,Réjean Talon,,QC,66.2,67.5,Masters 1,192.5,150,200,542.5,Single-ply,1
SBD,M,Jim Jong,,ON,58.75,60,Masters 1,177.5,132.5,215,525,Single-ply,1
SBD,M,Denis Chassé,,QC,118.3,125,Masters 1,260,185,280,725,Single-ply,1
SBD,M,Steve Fleming #2,,PE,103.2,110,Masters 1,205,157.5,185,547.5,Single-ply,4
SBD,M,Ron Strong,,ON,108.5,110,Masters 1,240,130,260,630,Single-ply,3
SBD,M,Keith Hobman,,SK,101.5,110,Masters 1,240,157.5,245,642.5,Single-ply,2
SBD,M,Daniel Royer,,QC,108.8,110,Masters 1,220,202.5,240,662.5,Single-ply,1
SBD,M,Byron Monstur,,NL,98.65,100,Masters 1,217.5,127.5,220,565,Single-ply,2
SBD,M,Brian Montague #2,,SK,99.6,100,Masters 1,237.5,180,272.5,690,Single-ply,1
