Place,Name,Sex,BirthDate,Age,Country,State,Equipment,Division,BodyweightKg,WeightClassKg,Squat1Kg,Squat2Kg,Squat3Kg,Squat4Kg,Best3SquatKg,Bench1Kg,Bench2Kg,Bench3Kg,Bench4Kg,Best3BenchKg,Deadlift1Kg,Deadlift2Kg,Deadlift3Kg,Deadlift4Kg,Best3DeadliftKg,TotalKg,Event
1,Kimberly Aguilar,F,2002-09-25,20,USA,CA,Raw,J20-23,72.6,75,105,110,115,,115,50,55,-62.5,,55,125,130,142.5,,142.5,312.5,SBD
1,Emily Ornelas,F,2002-07-27,20,USA,CA,Raw,J20-23,77.9,82.5,105,107.5,110,,110,47.5,52.5,-60,,52.5,130,137.5,147.5,,147.5,310,SBD
1,Lareina Amarante,F,1978-05-02,44,USA,CA,Raw,M40-44,81.7,82.5,120,-137.5,-147.5,,120,90,97.5,-105,,97.5,160,172.5,-185,,172.5,390,SBD
1,Nickie Garcia,F,1982-01-15,40,USA,CA,Raw,M40-44,87,90,115,125,-130,,125,60,65,70,,70,137.5,-147.5,147.5,,147.5,342.5,SBD
1,Judy Castro,F,1973-12-03,48,USA,CA,Raw,M45-49,77.7,82.5,130,135,140,,140,90,95,97.5,100,97.5,135,145,152.5,,152.5,390,SBD
1,Merci Courtright,F,1972-11-19,49,USA,CA,Raw,M45-49,106.3,110,77.5,82.5,90,,90,42.5,47.5,55,,55,110,117.5,127.5,,127.5,272.5,SBD
1,Micaiah Sandoval,F,1997-03-28,25,USA,CA,Raw,Open,53,56,77.5,85,92.5,,92.5,42.5,47.5,-52.5,,47.5,102.5,107.5,112.5,,112.5,252.5,SBD
1,Zyra Fortes,F,1985-02-19,37,USA,CA,Raw,Open,59.3,60,117.5,-125,-125,,117.5,-62.5,62.5,-67.5,,62.5,-137.5,137.5,142.5,,142.5,322.5,SBD
1,Damaris Porras,F,1997-06-10,25,USA,CA,Raw,Open,65.4,67.5,120,-125,130,,130,75,85,87.5,,87.5,125,135,145,,145,362.5,SBD
1,Judy Castro,F,1973-12-03,48,USA,CA,Raw,Open,77.7,82.5,130,135,140,,140,90,95,97.5,100,97.5,135,145,152.5,,152.5,390,SBD
2,Lareina Amarante,F,1978-05-02,44,USA,CA,Raw,Open,81.7,82.5,120,-137.5,-147.5,,120,90,97.5,-105,,97.5,160,172.5,-185,,172.5,390,SBD
3,Arlyn Abanes,F,1993-10-15,29,USA,CA,Raw,Open,79.7,82.5,125,-132.5,-132.5,,125,62.5,65,-70,,65,142.5,147.5,160,,160,350,SBD
1,Nickie Garcia,F,1982-01-15,40,USA,CA,Raw,Open,87,90,115,125,-130,,125,60,65,70,,70,137.5,-147.5,147.5,,147.5,342.5,SBD
1,Alicia Morris,F,1995-11-04,27,USA,CA,Raw,Open,114.5,125,-165,165,177.5,,177.5,95,97.5,105,,105,185,192.5,202.5,,202.5,485,SBD
1,Lexy Torres,F,2003-05-01,19,USA,CA,Raw,J17-19,86.1,90,80,87.5,92.5,,92.5,45,47.5,-55,,47.5,122.5,127.5,135,,135,275,SBD
1,Zyra Fortes,F,1985-02-19,37,USA,CA,Raw,S35-39,59.3,60,117.5,-125,-125,,117.5,-62.5,62.5,-67.5,,62.5,-137.5,137.5,142.5,,142.5,322.5,SBD
1,Dakota Courtright,F,2009-04-17,13,USA,CA,Raw,Youth,74.4,75,125,130,137.5,142.5,137.5,55,60,-65,,60,142.5,152.5,160,-167.5,160,357.5,SBD
1,Tracy Halstead,F,1978-10-13,44,USA,CA,Wraps,M40-44,77.4,82.5,77.5,85,90,,90,57.5,62.5,67.5,,67.5,97.5,102.5,107.5,,107.5,265,SBD
1,Miranda Chinchilla,F,1997-09-10,25,USA,CA,Wraps,Open,75,75,107.5,115,125,,125,60,-67.5,-67.5,,60,147.5,155,170,,170,355,SBD
1,Tracy Halstead,F,1978-10-13,44,USA,CA,Wraps,Open,77.4,82.5,77.5,85,90,,90,57.5,62.5,67.5,,67.5,97.5,102.5,107.5,,107.5,265,SBD
1,Lareina Amarante,F,1978-05-02,44,USA,CA,Raw,M40-44,81.7,82.5,,,,,,90,97.5,-105,,97.5,160,172.5,-185,,172.5,270,BD
1,Araceli Reyes,F,1976-07-10,46,USA,CA,Raw,M45-49,58.9,60,,,,,,25,40,-45,,40,57.5,65,80,,80,120,BD
1,Lyne Chapman,F,1965-05-18,57,USA,CA,Raw,M55-59,79.8,82.5,,,,,,67.5,72.5,77.5,,77.5,137.5,142.5,-147.5,,142.5,220,BD
1,Lareina Amarante,F,1978-05-02,44,USA,CA,Raw,Open,81.7,82.5,,,,,,90,97.5,-105,,97.5,160,172.5,-185,,172.5,270,BD
2,Isabella Saldivar,F,1996-03-31,26,USA,CA,Raw,Open,81.2,82.5,,,,,,57.5,62.5,-67.5,,62.5,157.5,165,172.5,,172.5,235,BD
3,Arlyn Abanes,F,1993-10-15,29,USA,CA,Raw,Open,79.7,82.5,,,,,,62.5,65,-70,,65,142.5,147.5,160,,160,225,BD
1,Emily Ornelas,F,2002-07-27,20,USA,CA,Raw,J20-23,77.9,82.5,,,,,,,,,,,130,137.5,147.5,,147.5,147.5,D
1,Arlyn Abanes,F,1993-10-15,29,USA,CA,Raw,Open,79.7,82.5,,,,,,,,,,,142.5,147.5,160,,160,160,D
1,Jeremiah Edmond,M,2001-09-12,21,USA,CA,Raw,J20-23,88.8,90,240,245,-250,,245,140,145,152.5,,152.5,277.5,287.5,295,,295,692.5,SBD
2,Deven Soto,M,2002-03-18,20,USA,CA,Raw,J20-23,87.8,90,180,187.5,197.5,,197.5,120,125,-132.5,,125,212.5,220,230,,230,552.5,SBD
3,Mario Martinez,M,,20,USA,CA,Raw,J20-23,89.9,90,-165,-165,165,,165,102.5,-107.5,110,,110,162.5,175,185,,185,460,SBD
1,David Beshay,M,2002-08-08,20,USA,CA,Raw,J20-23,94.7,100,227.5,240,255,,255,142.5,155,167.5,172.5,167.5,272.5,295,300,305,300,722.5,SBD
2,Kevin Ortiz,M,2002-01-29,20,USA,CA,Raw,J20-23,94.4,100,152.5,165,180,,180,115,-127.5,-135,,115,182.5,205,-215,,205,500,SBD
1,Jose Aguilar,M,1999-03-04,23,USA,CA,Raw,J20-23,108.7,110,-220,220,227.5,,227.5,140,147.5,152.5,,152.5,255,-265,265,,265,645,SBD
2,Jeffrey Gallegos,M,2000-05-26,22,USA,CA,Raw,J20-23,106.8,110,185,207.5,220,,220,142.5,157.5,-170,,157.5,227.5,250,260,,260,637.5,SBD
1,Reid Corley,M,1978-06-07,44,USA,CA,Raw,M40-44,97.3,100,185,192.5,200,,200,130,137.5,145,,145,245,255,265,,265,610,SBD
2,Miguel Hernandez T,M,1981-08-06,41,USA,CA,Raw,M40-44,97.9,100,-175,187.5,205,,205,107.5,117.5,137.5,,137.5,200,220,232.5,,232.5,575,SBD
3,Andrew Hood,M,1981-08-23,41,USA,CA,Raw,M40-44,99,100,175,182.5,192.5,,192.5,120,132.5,140,,140,180,202.5,215,,215,547.5,SBD
DQ,Michael Razo,M,1982-07-30,40,USA,CA,Raw,M40-44,130.5,140,240,-250,-250,,240,-137.5,-137.5,-137.5,,,217.5,225,227.5,,227.5,,SBD
1,Bobby Lawson,M,1988-11-20,33,USA,CA,Raw,Open,74.7,75,150,-170,182.5,,182.5,130,137.5,140,,140,185,207.5,220,,220,542.5,SBD
1,Braydon Googeg,M,1997-01-17,25,USA,CA,Raw,Open,85.4,90,182.5,192.5,200,,200,105,110,-117.5,,110,215,227.5,240,,240,550,SBD
2,Jose Bautista #3,M,1998-03-16,24,USA,CA,Raw,Open,84.1,90,115,122.5,137.5,,137.5,112.5,120,-127.5,,120,182.5,205,-220,,205,462.5,SBD
1,Nick Massa,M,1996-12-07,25,USA,CA,Raw,Open,99.3,100,230,245,255,,255,185,-197.5,-197.5,,185,282.5,305,-317.5,,305,745,SBD
2,William Dennis,M,1989-07-20,33,USA,CA,Raw,Open,93.1,100,205,217.5,227.5,,227.5,165,175,182.5,,182.5,250,-262.5,-262.5,,250,660,SBD
3,Justin Smith #3,M,1996-05-15,26,USA,CA,Raw,Open,95.6,100,230,235,247.5,,247.5,125,140,142.5,,142.5,247.5,265,-280,,265,655,SBD
4,Reid Corley,M,1978-06-07,44,USA,CA,Raw,Open,97.3,100,185,192.5,200,,200,130,137.5,145,,145,245,255,265,,265,610,SBD
5,Ritchy Martinez,M,1990-02-26,32,USA,CA,Raw,Open,96.7,100,172.5,182.5,-187.5,,182.5,112.5,122.5,-130,,122.5,212.5,227.5,235,,235,540,SBD
6,Felix Castro,M,1991-03-17,31,USA,CA,Raw,Open,94.7,100,120,-130,130,,130,115,120,-130,,120,145,157.5,167.5,,167.5,417.5,SBD
1,Gerardo Padilla,M,1996-02-18,26,USA,CA,Raw,Open,108.4,110,232.5,-242.5,242.5,,242.5,147.5,157.5,165,,165,232.5,245,257.5,,257.5,665,SBD
2,Jose Aguilar,M,1999-03-04,23,USA,CA,Raw,Open,108.7,110,-220,220,227.5,,227.5,140,147.5,152.5,,152.5,255,-265,265,,265,645,SBD
1,Tanner Hurt,M,1992-03-20,30,USA,CA,Raw,Open,123.4,125,287.5,310,322.5,,322.5,170,-182.5,182.5,,182.5,280,305,317.5,,317.5,822.5,SBD
2,Erick Ramirez,M,1997-01-16,25,USA,CA,Raw,Open,119,125,215,232.5,240,,240,155,-167.5,167.5,,167.5,270,295,-320,,295,702.5,SBD
3,Mark Parker,M,,31,USA,CA,Raw,Open,113.2,125,225,240,-260,,240,167.5,177.5,187.5,,187.5,240,255,272.5,,272.5,700,SBD
4,Ryan Jarmon,M,1993-09-08,29,USA,CA,Raw,Open,118.3,125,222.5,237.5,245,,245,152.5,165,-170,,165,-267.5,275,287.5,,287.5,697.5,SBD
5,Genaro Casasola,M,1986-12-14,35,USA,CA,Raw,Open,121.7,125,200,217.5,227.5,,227.5,132.5,137.5,147.5,,147.5,272.5,285,-292.5,,285,660,SBD
6,Carlos Ribadeneira,M,1986-09-23,36,USA,CA,Raw,Open,113.7,125,192.5,197.5,212.5,,212.5,140,-147.5,-147.5,,140,220,227.5,-245,,227.5,580,SBD
7,Michael Hardin,M,1987-04-27,35,USA,CA,Raw,Open,113.2,125,122.5,137.5,147.5,,147.5,-105,105,-115,,105,185,-192.5,-192.5,,185,437.5,SBD
1,Francisco De La O,M,1998-01-12,24,USA,CA,Raw,Open,137.5,140,220,232.5,247.5,,247.5,172.5,180,187.5,,187.5,227.5,237.5,-252.5,,237.5,672.5,SBD
1,Francisco Castanon,M,,24,USA,CA,Raw,Open,195.3,140+,337.7,352.5,-365,,352.5,202.5,210,215,,215,247.5,255,272.5,,272.5,840,SBD
1,Ty Burke,M,2004-09-11,18,USA,CA,Raw,J17-19,73.9,75,150,165,-175,,165,82.5,92.5,-97.5,,92.5,195,202.5,207.5,,207.5,465,SBD
1,Miguel Hernandez,M,2003-07-05,19,USA,CA,Raw,J17-19,108.4,110,175,192.5,-210,,192.5,125,135,-142.5,,135,210,227.5,242.5,,242.5,570,SBD
1,Diego Camacho,M,2004-04-13,18,USA,CA,Raw,J17-19,112,125,185,-187.5,-187.5,,185,140,147.5,-155,,147.5,180,190,-212.5,,190,522.5,SBD
1,Gerardo Padilla,M,1996-02-18,26,USA,CA,Raw,Open,108.4,110,232.5,-242.5,242.5,,242.5,147.5,157.5,165,,165,232.5,245,257.5,,257.5,665,SBD
1,Genaro Casasola,M,1986-12-14,35,USA,CA,Raw,S35-39,121.7,125,200,217.5,227.5,,227.5,132.5,137.5,147.5,,147.5,272.5,285,-292.5,,285,660,SBD
1,Jose Rios,M,1999-02-14,23,USA,CA,Wraps,J20-23,105.6,110,252.5,265,-272.5,,265,160,167.5,-182.5,,167.5,252.5,265,-277.5,,265,697.5,SBD
1,Michael Halstead,M,1973-03-05,49,USA,CA,Wraps,M45-49,78.7,82.5,142.5,152.5,-160,,152.5,135,145,150,155,150,177.5,185,-187.5,,185,487.5,SBD
1,Michael Halstead,M,1973-03-05,49,USA,CA,Wraps,Open,78.7,82.5,142.5,152.5,-160,,152.5,135,145,150,155,150,177.5,185,-187.5,,185,487.5,SBD
1,Jensen Kierulff,M,1980-08-10,42,USA,CA,Wraps,Open,98,100,285,305,317.5,,317.5,180,192.5,-202.5,,192.5,-307.5,325,340,,340,850,SBD
1,Eric Patel,M,1995-03-11,27,USA,CA,Wraps,Open,137.5,140,227.5,240,242.55,,242.55,122.5,132.5,135,,135,227.5,240,-245,,240,617.55,SBD
1,Wilfred Ignacio,M,1996-01-13,26,USA,CA,Single-ply,Open,109.5,110,200,-225,230,,230,125,-225,-225,,125,185,227.5,245,,245,600,SBD
1,Rudy Ponce,M,1982-07-22,40,USA,CA,Multi-ply,Open,117.9,125,300,320,335,350,335,225,-237.5,-265,,225,287.5,300,-310,,300,860,SBD
1,Efrain Cortez,M,1983-09-09,39,USA,CA,Raw,Open,104,110,,,,,,-157.5,157.5,167.5,,167.5,217.5,-225,-225,,217.5,385,BD
DQ,Michael Razo,M,1982-07-30,40,USA,CA,Raw,M40-44,130.5,140,,,,,,-137.5,-137.5,-137.5,,,,,,,,,B
1,William Dennis,M,1989-07-20,33,USA,CA,Raw,Open,93.1,100,,,,,,165,175,182.5,,182.5,,,,,,182.5,B
DQ,Christopher Nieto,M,1984-04-04,38,USA,CA,Raw,S35-39,145.6,140+,,,,,,-255,-255,-255,,,,,,,,,B
1,Michael Razo,M,1982-07-30,40,USA,CA,Raw,M40-44,130.5,140,,,,,,,,,,,217.5,225,227.5,,227.5,227.5,D
