Division,WeightClassKg,Place,Name,Team,BodyweightKg,Best3SquatKg,Best3BenchKg,Best3DeadliftKg,TotalKg,Equipment,Event,Sex
Girls,44.23,1,Janet Becerril,Perryton,42.96,129.27,61.23,127.01,317.51,Single-ply,SBD,F
Girls,44.23,2,Jordan Ramirez #3,Levelland,43.59,97.52,49.9,117.93,265.35,Single-ply,SBD,F
Girls,44.23,3,Brianna Brudney,Lampasas,42.05,104.33,38.56,115.67,258.55,Single-ply,SBD,F
Girls,44.23,4,Bianca Martinez,Pleasanton,43.18,97.52,49.9,108.86,256.28,Single-ply,SBD,F
Girls,44.23,5,Jordan Miller #1,Anna,43.95,92.99,49.9,106.59,249.48,Single-ply,SBD,F
Girls,44.23,6,Kenzee Gerik,Waco Connally,43.82,97.52,40.82,104.33,242.67,Single-ply,SBD,F
Girls,44.23,7,Shania Dies,Bridge City,43.82,97.52,40.82,104.33,242.67,Single-ply,SBD,F
Girls,44.23,8,June Ji Peters,Columbus,39.73,83.91,38.56,99.79,222.26,Single-ply,SBD,F
Girls,44.23,9,Caley Starks,Mabank,43.23,95.25,38.56,88.45,222.26,Single-ply,SBD,F
Girls,44.23,10,Haley Walls,Fairfield,41.91,83.91,40.82,90.72,215.46,Single-ply,SBD,F
Girls,44.23,NS,Lourdes Jaimes,Bonham,,,,,,Single-ply,SBD,F
Girls,44.23,NS,Haley Hallford,Caldwell,,,,,,Single-ply,SBD,F
Girls,44.23,NS,Alaina Stewart,Splendora,,,,,,Single-ply,SBD,F
Girls,47.85,1,Madi Werner,Seminole,47.76,129.27,86.18,142.88,358.34,Single-ply,SBD,F
Girls,47.85,2,Kaitlyn Pelitire,Beeville Jones,46.95,136.08,70.31,138.35,344.73,Single-ply,SBD,F
Girls,47.85,3,Marisol Contreras,Cleveland,47.08,124.74,56.7,136.08,317.51,Single-ply,SBD,F
Girls,47.85,4,Yvette Flores,Crystal City,47.85,124.74,68.04,124.74,317.51,Single-ply,SBD,F
Girls,47.85,5,Tara Moreno,Alvarado,47.26,113.4,63.5,117.93,294.84,Single-ply,SBD,F
Girls,47.85,6,Stephanie Mancilla,Salado,46.31,113.4,47.63,127.01,288.03,Single-ply,SBD,F
Girls,47.85,7,Devyn Turner,Victoria St. Joseph,46.49,108.86,58.97,111.13,278.96,Single-ply,SBD,F
Girls,47.85,8,Vanessa Banta,Sinton,47.58,106.59,43.09,124.74,274.42,Single-ply,SBD,F
Girls,47.85,9,Alondra Watkins,Iowa Park,46.31,92.99,58.97,113.4,265.35,Single-ply,SBD,F
Girls,47.85,10,Megan Elkins,Needville,47.04,106.59,47.63,102.06,256.28,Single-ply,SBD,F
Girls,47.85,11,Karina Castillo,Gilmer,47.72,108.86,45.36,102.06,256.28,Single-ply,SBD,F
Girls,47.85,12,Kati Roglin,Springtown,46.27,99.79,49.9,102.06,251.74,Single-ply,SBD,F
Girls,47.85,13,Victoria Vasquez,Andrews,44.5,92.99,47.63,102.06,242.67,Single-ply,SBD,F
Girls,47.85,DQ,Stacy Nicholas,Mabank,46.27,104.33,43.09,,,Single-ply,SBD,F
Girls,51.94,1,Julissa Ortiz,Beeville Jones,50.98,145.15,70.31,158.76,374.21,Single-ply,SBD,F
Girls,51.94,2,Stephanie Gonzalez,Hidalgo Early College,51.48,142.88,72.57,138.35,353.8,Single-ply,SBD,F
Girls,51.94,3,Catrina Garcia,Pearsall,51.48,154.22,70.31,124.74,349.27,Single-ply,SBD,F
Girls,51.94,4,Sophia Romero,Pleasanton,51.53,142.88,63.5,131.54,337.93,Single-ply,SBD,F
Girls,51.94,5,Amanda Rodriguez #1,Seminole,49.9,127.01,72.57,136.08,335.66,Single-ply,SBD,F
Girls,51.94,6,Sydney Martinez,Crystal City,51.71,124.74,65.77,142.88,333.39,Single-ply,SBD,F
Girls,51.94,7,Andrea Guerra,Zapata,51.66,124.74,68.04,133.81,326.59,Single-ply,SBD,F
Girls,51.94,8,Karina Garay,Carrizo Springs,50.8,127.01,68.04,127.01,322.05,Single-ply,SBD,F
Girls,51.94,9,Kelsey Green,Bullard,51.44,142.88,65.77,113.4,322.05,Single-ply,SBD,F
Girls,51.94,10,Savannah Day,Hamshire-Fannett,50.76,129.27,72.57,111.13,312.98,Single-ply,SBD,F
Girls,51.94,11,Hailey Lentz,Taylor,51.3,120.2,56.7,133.81,310.71,Single-ply,SBD,F
Girls,51.94,12,Olivia Ansley,Shepherd,50.76,122.47,68.04,113.4,303.91,Single-ply,SBD,F
Girls,51.94,13,Kandycee Walker,Bonham,50.26,127.01,52.16,117.93,297.1,Single-ply,SBD,F
Girls,51.94,14,Rian Kinney,Springtown,51.94,138.35,56.7,102.06,297.1,Single-ply,SBD,F
Girls,51.94,15,Lizzet Ortega,Venus,50.48,124.74,56.7,111.13,292.57,Single-ply,SBD,F
Girls,51.94,16,Jodi Isaac,Henderson,51.12,104.33,56.7,129.27,290.3,Single-ply,SBD,F
Girls,51.94,17,Joeli Castillo,Zapata,51.35,111.13,54.43,124.74,290.3,Single-ply,SBD,F
Girls,51.94,18,Brittany Espinoza,Seminole,50.8,106.59,58.97,115.67,281.23,Single-ply,SBD,F
Girls,56.02,1,Alana Montes,Zapata,56.02,170.1,86.18,188.24,444.52,Single-ply,SBD,F
Girls,56.02,2,Kimberly Kelley,Jourdanton,55.07,147.42,70.31,183.7,401.43,Single-ply,SBD,F
Girls,56.02,3,Alexis Bradford,Shepherd,53.98,156.49,61.23,145.15,362.87,Single-ply,SBD,F
Girls,56.02,4,Kayedon Oliver,Paris North Lamar,56.02,124.74,74.84,136.08,335.66,Single-ply,SBD,F
Girls,56.02,5,Lauren Tatom,Iowa Park,55.52,142.88,58.97,131.54,333.39,Single-ply,SBD,F
Girls,56.02,6,Aly Urrabazo,Crystal City,55.93,124.74,70.31,136.08,331.12,Single-ply,SBD,F
Girls,56.02,7,Shelimar Neris Santiago,Burkburnett,55.07,113.4,58.97,145.15,317.51,Single-ply,SBD,F
Girls,56.02,8,Diamond Escobedo,Snyder,56.02,122.47,74.84,120.2,317.51,Single-ply,SBD,F
Girls,56.02,9,Bella Weatherby,Alvarado,56.02,142.88,52.16,122.47,317.51,Single-ply,SBD,F
Girls,56.02,10,Natalie Reither,Rusk,54.39,127.01,61.23,127.01,315.25,Single-ply,SBD,F
Girls,56.02,11,Kaylee Lewis,Splendora,54.93,115.67,56.7,140.61,312.98,Single-ply,SBD,F
Girls,56.02,12,Marielli Torres,Corpus Christi West Oso,55.38,124.74,49.9,138.35,312.98,Single-ply,SBD,F
Girls,56.02,13,Gillian Nietsche,Giddings,53.34,117.93,52.16,124.74,294.84,Single-ply,SBD,F
Girls,56.02,NS,Zaira Navarrete,Perryton,,,,,,Single-ply,SBD,F
Girls,60.1,1,Maddie Graham,Salado,57.79,165.56,106.59,154.22,426.38,Single-ply,SBD,F
Girls,60.1,2,Gabby Martinez,Lampasas,60.1,165.56,83.91,158.76,408.23,Single-ply,SBD,F
Girls,60.1,3,Brianna Cole,Melissa,59.28,147.42,79.38,156.49,383.29,Single-ply,SBD,F
Girls,60.1,4,Michaela Dearing,Orange Little Cypress-Mauriceville,58.6,154.22,83.91,136.08,374.21,Single-ply,SBD,F
Girls,60.1,5,Cheyenne Avila,Snyder,58.65,158.76,70.31,145.15,374.21,Single-ply,SBD,F
Girls,60.1,6,Alyssa Patterson,Shepherd,58.47,145.15,72.57,142.88,360.61,Single-ply,SBD,F
Girls,60.1,7,Becca Barron,Midland Greenwood,59.28,129.27,79.38,142.88,351.53,Single-ply,SBD,F
Girls,60.1,8,Kate Kiser,Emory Rains,57.33,129.27,70.31,145.15,344.73,Single-ply,SBD,F
Girls,60.1,9,Claudia Chapa,Robstown,58.33,129.27,68.04,145.15,342.46,Single-ply,SBD,F
Girls,60.1,10,Khelsea Cray,Gonzales,60.06,136.08,58.97,147.42,342.46,Single-ply,SBD,F
Girls,60.1,11,Maddi Bass,Canton,59.6,129.27,54.43,149.69,333.39,Single-ply,SBD,F
Girls,60.1,12,Alyssa Hill,Bonham,57.7,122.47,63.5,131.54,317.51,Single-ply,SBD,F
Girls,67.36,1,Andrea Ramirez,Rio Hondo,63.87,174.63,83.91,165.56,424.11,Single-ply,SBD,F
Girls,67.36,2,Fey Esparza,Venus,65.27,174.63,74.84,174.63,424.11,Single-ply,SBD,F
Girls,67.36,3,Esperanza Delgado,Jourdanton,64.68,165.56,77.11,176.9,419.57,Single-ply,SBD,F
Girls,67.36,4,Mallarie Sander,Palestine,64.86,165.56,97.52,151.95,415.04,Single-ply,SBD,F
Girls,67.36,5,Heidi Jaquez,Wharton,63.5,158.76,86.18,161.03,405.97,Single-ply,SBD,F
Girls,67.36,6,Brittney Butler,Geronimo Navarro,67.36,165.56,74.84,158.76,399.16,Single-ply,SBD,F
Girls,67.36,7,Alexandrea Nall,Waco Connally,66.27,158.76,63.5,167.83,390.09,Single-ply,SBD,F
Girls,67.36,8,Kylee Howard,Kennedale,66.18,149.69,81.65,154.22,385.55,Single-ply,SBD,F
Girls,67.36,9,Franchesca Sandoval,Port Isabel,65.45,165.56,68.04,149.69,383.29,Single-ply,SBD,F
Girls,67.36,10,Christy Alvarez,Crystal City,62.28,145.15,70.31,163.29,378.75,Single-ply,SBD,F
Girls,67.36,11,Jazmin Puryear,Lake Worth,63.41,147.42,65.77,163.29,376.48,Single-ply,SBD,F
Girls,67.36,12,Kerrington Biggers,Snyder,65.14,147.42,74.84,142.88,365.14,Single-ply,SBD,F
Girls,67.36,13,Shyane Vinson,Mabank,65.91,127.01,68.04,163.29,358.34,Single-ply,SBD,F
Girls,67.36,14,Jayden White #1,Freeport Brazosport,63.23,131.54,52.16,145.15,328.85,Single-ply,SBD,F
Girls,67.36,15,Ragan Holder,Andrews,67.36,122.47,52.16,140.61,315.25,Single-ply,SBD,F
Girls,67.36,DQ,Bethany Martinez,Bandera,63.87,131.54,,,,Single-ply,SBD,F
Girls,67.36,DQ,Key Kennedy,Bullard,66.59,,,,,Single-ply,SBD,F
Girls,75.07,1,Talor Parker,Emory Rains,70.85,183.7,117.93,156.49,458.13,Single-ply,SBD,F
Girls,75.07,2,Vail Springer,Anna,75.07,165.56,120.2,136.08,421.84,Single-ply,SBD,F
Girls,75.07,3,Romie Castilleja,Diboll,72.48,154.22,92.99,151.95,399.16,Single-ply,SBD,F
Girls,75.07,4,Anna Hooten,Emory Rains,71.71,149.69,83.91,163.29,396.89,Single-ply,SBD,F
Girls,75.07,5,Crystal Garcia,Splendora,73.94,151.95,88.45,151.95,392.36,Single-ply,SBD,F
Girls,75.07,6,Emily Martinez,Waco Connally,73.12,147.42,77.11,165.56,390.09,Single-ply,SBD,F
Girls,75.07,7,Cecily Rodriguez,Orange Grove,74.07,151.95,68.04,170.1,390.09,Single-ply,SBD,F
Girls,75.07,8,Krayah Langford,Levelland,73.48,140.61,86.18,147.42,374.21,Single-ply,SBD,F
Girls,75.07,9,Cierra Lopez,Jourdanton,73.21,151.95,72.57,142.88,367.41,Single-ply,SBD,F
Girls,75.07,10,Keila Molina,Mexia,72.21,151.95,74.84,122.47,349.27,Single-ply,SBD,F
Girls,75.07,11,Maria Lopez,Kennedale,70.31,127.01,72.57,147.42,347,Single-ply,SBD,F
Girls,75.07,12,Aundrea Jackson,Ferris,72.71,158.76,61.23,122.47,342.46,Single-ply,SBD,F
Girls,75.07,NS,Kiana Lopez,Crystal City,,,,,,Single-ply,SBD,F
Girls,75.07,NS,Talia Ybarra,Andrews,,,,,,Single-ply,SBD,F
Girls,75.07,DQ,Mykhala Lewis,Needville,72.17,151.95,,,,Single-ply,SBD,F
Girls,82.33,1,Callie Saurage,Hamshire-Fannett,80.33,183.7,120.2,163.29,467.2,Single-ply,SBD,F
Girls,82.33,2,Emily Jondron,Princeton,79.7,147.42,120.2,149.69,417.3,Single-ply,SBD,F
Girls,82.33,3,Janna Rychlik,Needville,78.83,183.7,83.91,133.81,401.43,Single-ply,SBD,F
Girls,82.33,4,Yanitza Cavazos,Jourdanton,80.74,161.03,74.84,165.56,401.43,Single-ply,SBD,F
Girls,82.33,5,Brailey Hall,Burnet,80.97,172.37,72.57,136.08,381.02,Single-ply,SBD,F
Girls,82.33,6,Jamie Wilkinson,Fairfield,79.29,165.56,86.18,127.01,378.75,Single-ply,SBD,F
Girls,82.33,7,Breena Read,Dalhart,78.47,154.22,61.23,154.22,369.68,Single-ply,SBD,F
Girls,82.33,8,Saron Mendoza,Levelland,79.15,142.88,74.84,151.95,369.68,Single-ply,SBD,F
Girls,82.33,9,Ari Wilkinson,Lampasas,77.7,138.35,72.57,140.61,351.53,Single-ply,SBD,F
Girls,82.33,10,Clarissa Torres,Springtown,79.79,154.22,61.23,127.01,342.46,Single-ply,SBD,F
Girls,82.33,11,Jaeda Garrett,Rusk,77.56,127.01,63.5,145.15,335.66,Single-ply,SBD,F
Girls,82.33,DQ,Krystal Ortiz,Beeville Jones,81.24,,,,,Single-ply,SBD,F
Girls,90.04,1,Melissa Reyes,Carrizo Springs,82.69,192.78,90.72,172.37,455.86,Single-ply,SBD,F
Girls,90.04,2,Tabi Rogers,Springtown,87.5,192.78,92.99,170.1,455.86,Single-ply,SBD,F
Girls,90.04,3,Ja'Tayjah Vital,West Orange-Stark,87.68,192.78,83.91,172.37,449.06,Single-ply,SBD,F
Girls,90.04,4,Riley Clifton,Emory Rains,82.42,181.44,108.86,151.95,442.25,Single-ply,SBD,F
Girls,90.04,5,Hailee Anderson,Anna,85.96,167.83,81.65,172.37,421.84,Single-ply,SBD,F
Girls,90.04,6,Peyton Martin,Taylor,87.32,174.63,86.18,158.76,419.57,Single-ply,SBD,F
Girls,90.04,7,Kirbee Taylor,Emory Rains,87.09,167.83,102.06,147.42,417.3,Single-ply,SBD,F
Girls,90.04,8,Emily Hertel,Midland Greenwood,89.99,170.1,79.38,156.49,405.97,Single-ply,SBD,F
Girls,90.04,9,Kaci Gauntt,Mexia,88.68,154.22,97.52,151.95,403.7,Single-ply,SBD,F
Girls,90.04,10,Jazmine Kuper,Springtown,87.5,151.95,90.72,142.88,385.55,Single-ply,SBD,F
Girls,90.04,11,I'Kea Byrd,Coldspring-Oakhurst,86.05,140.61,58.97,158.76,358.34,Single-ply,SBD,F
Girls,90.04,12,Serena Tarango,Fort Stockton,88.9,140.61,61.23,149.69,351.53,Single-ply,SBD,F
Girls,90.04,NS,Dolores Guajardo,Raymondville,,,,,,Single-ply,SBD,F
Girls,90.04,DQ,Irma Arredondo,Crystal City,88.18,190.51,,,,Single-ply,SBD,F
Girls,90.04,DQ,Katelin Van Dong,Lytle,87.82,,,,,Single-ply,SBD,F
Girls,100.02,1,Kathrina Rangel,San Antonio Holy Cross,90.72,204.12,79.38,174.63,458.13,Single-ply,SBD,F
Girls,100.02,2,Karina Martinez #2,Raymondville,96.75,206.38,99.79,149.69,455.86,Single-ply,SBD,F
Girls,100.02,3,Dominique Covarrubias,San Antonio Holy Cross,99.93,208.65,83.91,149.69,442.25,Single-ply,SBD,F
Girls,100.02,4,Madison Willbanks,Rusk,96.25,199.58,86.18,154.22,439.98,Single-ply,SBD,F
Girls,100.02,5,Emily Warren,Bridge City,92.85,170.1,97.52,163.29,430.91,Single-ply,SBD,F
Girls,100.02,6,Acacia Ray,Princeton,98.93,165.56,106.59,158.76,430.91,Single-ply,SBD,F
Girls,100.02,7,Melanie Morin,Andrews,97.43,167.83,83.91,163.29,415.04,Single-ply,SBD,F
Girls,100.02,8,Bernise Leija,Crystal City,93.71,185.97,74.84,147.42,408.23,Single-ply,SBD,F
Girls,100.02,9,Allison Child,Liberty Hill,98.52,172.37,74.84,158.76,405.97,Single-ply,SBD,F
Girls,100.02,10,Amber Rush,Stephenville,91.31,179.17,83.91,140.61,403.7,Single-ply,SBD,F
Girls,100.02,11,Carlie Roberts,Big Spring,94.17,170.1,61.23,151.95,383.29,Single-ply,SBD,F
Girls,100.02,12,Victoria Martinez #4,Freeport Brazosport,94.76,147.42,86.18,140.61,374.21,Single-ply,SBD,F
Girls,100.02,13,Alexandria Nelson,Texarkana Liberty-Eylau,98.84,154.22,61.23,154.22,369.68,Single-ply,SBD,F
Girls,100.02,DQ,Madison McCleary,Jourdanton,91.44,185.97,,,,Single-ply,SBD,F
Girls,100.02,NS,Priscilla Adejokun,Melissa,,,,,,Single-ply,SBD,F
Girls,100.02+,1,Ericka Hernandez,Gonzales,104.96,204.12,88.45,190.51,483.08,Single-ply,SBD,F
Girls,100.02+,2,Monica Gallegos,Rio Hondo,101.97,183.7,122.47,174.63,480.81,Single-ply,SBD,F
Girls,100.02+,3,Tess Hickey,Sanger,123.1,206.38,115.67,147.42,469.47,Single-ply,SBD,F
Girls,100.02+,4,Daisy Tellez,Crystal City,169.73,170.1,120.2,174.63,464.93,Single-ply,SBD,F
Girls,100.02+,5,KayDee Sexton,Gatesville,104.46,167.83,124.74,149.69,442.25,Single-ply,SBD,F
Girls,100.02+,6,Jayde Robertson,Athens,118.84,192.78,90.72,158.76,442.25,Single-ply,SBD,F
Girls,100.02+,7,Jasmine Kellar,Giddings,130.27,167.83,92.99,172.37,433.18,Single-ply,SBD,F
Girls,100.02+,8,Jordyn Bustillos,Freeport Brazosport,118.93,183.7,79.38,163.29,426.38,Single-ply,SBD,F
Girls,100.02+,9,Naomi Gonzales,Sweetwater,102.06,170.1,65.77,140.61,376.48,Single-ply,SBD,F
Girls,100.02+,10,Hilda Zumaya,Splendora,102.97,145.15,74.84,151.95,371.95,Single-ply,SBD,F
Girls,100.02+,11,Allison Torres,Sweetwater,113.22,151.95,63.5,142.88,358.34,Single-ply,SBD,F
Girls,100.02+,NS,Jocelyn Padilla,Port Isabel,,,,,,Single-ply,SBD,F
Girls,100.02+,DQ,Tori Scott,Gainesville,117.75,170.1,77.11,,,Single-ply,SBD,F
Girls,100.02+,DQ,Justine Elliott,Tyler Chapel Hill,113.58,192.78,83.91,,,Single-ply,SBD,F
