Division,WeightClassKg,Place,Name,Team,BodyweightKg,Best3SquatKg,Best3BenchKg,Best3DeadliftKg,TotalKg,Equipment,Event,Sex,BirthDate
Boys,67.13,1,Tyler Toutcheque,West Columbia,63.41,183.7,102.06,201.85,487.61,Single-ply,SBD,M,
Boys,67.13,2,Hector Hernandez,West Columbia,66.04,138.35,90.72,133.81,362.87,Single-ply,SBD,M,
Boys,67.13,3,James Massengale,West Columbia,62.87,120.2,95.25,127.01,342.46,Single-ply,SBD,M,
Boys,67.13,4,Christian Byrd,Sweeny,66.04,92.99,52.16,124.74,269.89,Single-ply,SBD,M,
Boys,74.84,1,Parker Kingrea,West Columbia,74.12,156.49,106.59,174.63,437.72,Single-ply,SBD,M,
Boys,74.84,2,Hadyn Schneider,West Columbia,71.49,138.35,83.91,170.1,392.36,Single-ply,SBD,M,
Boys,74.84,3,Jc Lockler,Sweeny,69.4,115.67,113.4,131.54,360.61,Single-ply,SBD,M,
Boys,82.1,1,Tj Mong,Sweeny,81.19,158.76,102.06,174.63,435.45,Single-ply,SBD,M,
Boys,82.1,2,Javin Hines,West Columbia,82.01,147.42,102.06,185.97,435.45,Single-ply,SBD,M,
Boys,82.1,3,Bradford Erwin,West Columbia,80.56,151.95,92.99,161.03,405.97,Single-ply,SBD,M,
Boys,99.79,1,Brett Bible,Sweeny,99.52,229.06,149.69,217.72,596.47,Single-ply,SBD,M,
Boys,99.79,2,Caleb Meyers,Sweeny,97.25,145.15,127.01,154.22,426.38,Single-ply,SBD,M,
Boys,109.77,1,Diego Flores,Sweeny,109.13,235.87,183.7,231.33,650.91,Single-ply,SBD,M,
Boys,124.74,1,Dylan Stone,West Columbia,120.47,226.8,129.27,197.31,553.38,Single-ply,SBD,M,
Boys,124.74,2,Shane Martinez,Sweeny,121.65,151.95,113.4,138.35,403.7,Single-ply,SBD,M,
Boys,124.74,DQ,Richard Johnson,Sweeny,117.39,142.88,,,,Single-ply,SBD,M,
Boys,139.71,1,Lance McLaren,Sweeny,130.63,231.33,151.95,208.65,591.94,Single-ply,SBD,M,
