Sex,WeightClassKg,EntryDate,Name,BirthDate,Country,Bench1Kg,Bench2Kg,Bench3Kg,Best3BenchKg,Bench4Kg,TotalKg,BodyweightKg,Event,Equipment,Division,Place
M,49,2013-05-22,Roman Ustyuzhanin,1994-01-14,Russia,75,83,90,90,-95,90,47.75,B,Raw,Open,10
M,49,2013-05-22,Vladimir Balynets,1985-04-25,Russia,150,155,160,160,-163,160,48.6,B,Raw,Open,1
M,49,2013-05-22,Aigars Višņevskis,1967-03-20,Latvia,110,116,-122,116,,116,44.05,B,Raw,Open,8
M,49,2013-05-22,Anatolii Mykoliuk,1991-04-05,Ukraine,143,-147,-147,143,,143,43.5,B,Raw,Open,2
M,49,2013-05-22,Nándor Tunkel,1988-04-08,Hungary,-125,-125,125,125,,125,46,B,Raw,Open,6
M,49,2013-05-22,Sławomir Szymański,1985-03-19,Poland,125,130,-133,130,,130,48.85,B,Raw,Open,5
M,49,2013-05-22,Ali Riza Durak,1979-07-01,Turkey,85,90,95,95,,95,46.5,B,Raw,Open,9
M,49,2013-05-22,Adam Alderman,1983-05-16,UK,125,130,133,133,,133,48.85,B,Raw,Open,4
M,49,2013-05-22,Patrick Jean Ardon,1983-04-27,France,137,142,-144,142,,142,49,B,Raw,Open,3
M,49,2013-05-22,Hayder Al Furaiji,1993-09-20,Iraq,108,114,120,120,,120,48.45,B,Raw,Open,7
M,54,2013-05-23,Vladimir Krivulya,1991-11-09,Russia,160,163,166,166,170,166,51.55,B,Raw,Open,1
M,54,2013-05-23,Paschalis Kouloumoglou,1994-11-03,Greece,130,-135,135,135,140,135,52.85,B,Raw,Open,6
M,54,2013-05-23,Sergii Khvalinskyi,1986-05-18,Ukraine,147,151,-155,151,,151,53.95,B,Raw,Open,4
M,54,2013-05-23,Ahmed Al-Majmaie,1995-05-04,Iraq,105,108,-110,108,,108,52.75,B,Raw,Open,8
M,54,2013-05-23,Ali Jawad,1989-01-12,UK,160,163,-166,163,,163,53.09,B,Raw,Open,3
M,54,2013-05-23,Mustafa Gul,1987-01-18,Turkey,125,130,-140,130,,130,53.9,B,Raw,Open,7
M,54,2013-05-23,Dimitrios Bakochristos,1983-04-16,Greece,148,151,163,163,,163,52.35,B,Raw,Open,2
M,54,2013-05-23,Jorge Eduardo Carinao Cardenas,1991-02-18,Chile,135,-140,140,140,,140,54,B,Raw,Open,5
M,54,2013-05-23,Suat Guven,1996-01-01,Turkey,70,87,-95,87,,87,50.05,B,Raw,Open,9
M,59,2013-05-23,Juan Carlos Garrido Acevedo,1980-03-04,Chile,-175,-175,-180,,,,58.65,B,Raw,Open,DQ
M,59,2013-05-23,Kubilay Sahin,1990-07-28,Turkey,-140,-140,-140,,,,56.8,B,Raw,Open,DQ
M,59,2013-05-23,Mariusz Tomczyk,1971-05-10,Poland,-165,-165,165,165,,165,58.05,B,Raw,Open,2
M,59,2013-05-23,Vittorio Maria Zaccaro,1993-05-05,Italy,-115,-115,-120,,,,56.65,B,Raw,Open,DQ
M,59,2013-05-23,Denis Maksimenko,1994-09-30,Russia,105,115,120,120,,120,58.6,B,Raw,Open,5
M,59,2013-05-23,Ildar Bedderdinov,1984-05-04,Russia,171,175,-180,175,,175,56.9,B,Raw,Open,1
M,59,2013-05-23,Juhani Kokko,1986-06-30,Finland,140,-145,-145,140,,140,58.3,B,Raw,Open,4
M,59,2013-05-23,Hussein Juboori,1982-04-22,Iraq,157,-165,-165,157,,157,56.55,B,Raw,Open,3
M,65,2013-05-24,Igor Maletskiy,1994-02-27,Russia,105,-110,110,110,,110,64.35,B,Raw,Open,5
M,65,2013-05-24,Marek Trykacz,1985-10-06,Poland,160,170,-171,170,,170,63.6,B,Raw,Open,4
M,65,2013-05-24,Ayrat Zakiev,1981-10-02,Russia,185,190,-196,190,-200,190,63.8,B,Raw,Open,1
M,65,2013-05-24,Grzegorz Lanzer,1986-04-27,Poland,161,-171,172,172,,172,64.45,B,Raw,Open,3
M,65,2013-05-24,Izzettin Kanat,1975-03-03,Turkey,170,180,-196,180,,180,64.2,B,Raw,Open,2
M,72,2013-05-24,Sergey Sychev #1,1978-07-18,Russia,200,-208,-208,200,208,200,71.55,B,Raw,Open,1
M,72,2013-05-24,Nikolaos Gkountanis,1977-02-15,Greece,177,181,-185,181,,181,71.25,B,Raw,Open,2
M,72,2013-05-24,Michael Yule,1978-12-24,UK,-175,175,-180,175,,175,69.4,B,Raw,Open,4
M,72,2013-05-24,Daniel Steward,1986-08-09,UK,105,-109,-112,105,,105,69.1,B,Raw,Open,5
M,72,2013-05-24,Kirill Flegentov,1987-08-03,Russia,160,175,-180,175,,175,65.85,B,Raw,Open,3
M,80,2013-05-24,Harri Kauppila,1979-03-31,Finland,-152,-152,-158,,,,78.75,B,Raw,Open,DQ
M,80,2013-05-24,Gkremislav Moysiadis,1978-09-26,Greece,181,185,-191,185,,185,72.85,B,Raw,Open,1
M,80,2013-05-24,Adel Shanbih,1989-12-13,UAE,122,126,128,128,,128,72.9,B,Raw,Open,7
M,80,2013-05-24,Julien Avom Mbume,1995-08-02,France,150,-155,-157,150,-157,150,73.8,B,Raw,Open,5
M,80,2013-05-24,Andrei Samovik,1996-02-03,Russia,117,123,130,130,,130,76.6,B,Raw,Open,6
M,80,2013-05-24,Denis Karasev,1994-11-16,Russia,107,-112,-112,107,,107,79.4,B,Raw,Open,8
M,80,2013-05-24,Vasileios Terzitanos,1978-09-30,Greece,157,-162,-162,157,,157,77.95,B,Raw,Open,4
M,80,2013-05-24,Karen Abramyants,1977-08-09,Russia,175,-181,-181,175,,175,79.85,B,Raw,Open,3
M,80,2013-05-24,Wawrzyniec Piotr Latus,1981-09-10,Poland,180,-185,-191,180,,180,78.25,B,Raw,Open,2
M,80,2013-05-24,Luis Miguel Pita Fraga,1970-09-30,Spain,-145,-147,-152,,,,77.3,B,Raw,Open,DQ
M,88,2013-05-25,Janne Piipponen,1979-09-30,Finland,175,-183,-183,175,,175,86.4,B,Raw,Open,4
M,88,2013-05-25,Anastasios Baos,1986-12-23,Greece,161,166,-171,166,,166,87.3,B,Raw,Open,5
M,88,2013-05-25,Abdulla Alhammadi,1984-02-02,UAE,105,-110,110,110,,110,86.7,B,Raw,Open,9
M,88,2013-05-25,Spas Spasov,1974-05-22,Bulgaria,-170,-170,-175,,,,85.95,B,Raw,Open,DQ
M,88,2013-05-25,Patrique Dankers,1976-11-06,Netherlands,180,-186,-186,180,,180,84.75,B,Raw,Open,3
M,88,2013-05-25,Ladislav Lechan,1959-10-18,Slovakia,124,128,136,136,,136,87.55,B,Raw,Open,7
M,88,2013-05-25,Christos Gkiokas,1972-11-19,Greece,-181,-181,-181,,,,86.95,B,Raw,Open,DQ
M,88,2013-05-25,Reginald Byrne,1970-10-29,Ireland,90,95,-97,95,,95,86.7,B,Raw,Open,10
M,88,2013-05-25,Piotr Stanislaw Szymeczek,1974-05-08,Poland,-185,185,188,188,,188,83.15,B,Raw,Open,1
M,88,2013-05-25,Stefan Rosca,1990-08-06,Moldova,185,-188,-188,185,,185,80.25,B,Raw,Open,2
M,88,2013-05-25,Mehmet Dogan,1982-01-01,Turkey,160,-181,-181,160,,160,85.1,B,Raw,Open,6
M,88,2013-05-25,Verginiu Arapu,1994-05-21,Moldova,115,125,-135,125,,125,85.2,B,Raw,Open,8
M,97,2013-05-25,Toninho Norden,1987-12-18,Netherlands,-133,-133,-133,,,,90.8,B,Raw,Open,DQ
M,97,2013-05-25,Ryszard Rogala,1975-03-11,Poland,-190,190,-196,190,,190,95,B,Raw,Open,4
M,97,2013-05-25,Thaer Al-Ali,1976-01-03,Iraq,210,-217,-217,210,,210,92.6,B,Raw,Open,1
M,97,2013-05-25,Ilnar Latypov,1974-11-11,Russia,-196,196,-201,196,,196,95.25,B,Raw,Open,3
M,97,2013-05-25,Chris Rattenbury,1978-11-21,UK,167,-171,171,171,,171,95.35,B,Raw,Open,6
M,97,2013-05-25,Iago Gorgodze,1976-10-19,Georgia,160,-170,-175,160,,160,92.2,B,Raw,Open,7
M,97,2013-05-25,Petar Milenković,1984-10-25,Serbia,-196,-196,-201,,,,92,B,Raw,Open,DQ
M,97,2013-05-25,Anton Kryukov,1988-07-25,Ukraine,-196,198,202,202,205,202,96.5,B,Raw,Open,2
M,97,2013-05-25,Ibrahim Almusaabi,1995-04-25,UAE,70,75,-80,75,-83,75,96.55,B,Raw,Open,9
M,97,2013-05-25,Mateusz Woroszyl,1982-03-05,Poland,171,-178,178,178,,178,91.75,B,Raw,Open,5
M,97,2013-05-25,Jan Kubosi,1970-01-05,Slovakia,135,140,-147,140,,140,95.3,B,Raw,Open,8
M,97,2013-05-25,Julien Didier Nicolas Camdessoucens,1986-05-24,France,-160,-160,-160,,,,89.25,B,Raw,Open,DQ
M,107,2013-05-26,Pavlos Mamalos,1971-02-08,Greece,195,203,-211,203,,203,103,B,Raw,Open,3
M,107,2013-05-26,Damian Stanislaw Kulig,1971-10-17,Poland,204,206,-212,206,,206,104.4,B,Raw,Open,2
M,107,2013-05-26,Ilfat Mukhatarov,1971-05-04,Russia,184,-190,-190,184,,184,102.45,B,Raw,Open,6
M,107,2013-05-26,Elshan Huseynov,1977-11-21,Azerbaijan,-225,225,-233,225,233,225,104.3,B,Raw,Open,1
M,107,2013-05-26,Abdulla Ahmed Aldhanhani,1979-01-02,UAE,170,175,-178,175,,175,103.6,B,Raw,Open,7
M,107,2013-05-26,Mahmood Al Nuaimi,1978-08-08,Iraq,195,-202,,195,,195,98.65,B,Raw,Open,4
M,107,2013-05-26,Paul Efayena,1978-06-18,UK,180,-187,187,187,,187,106.45,B,Raw,Open,5
M,107+,2013-05-26,Maharram Aliyev,1964-01-15,Azerbaijan,210,220,-232,220,,220,147.15,B,Raw,Open,2
M,107+,2013-05-26,Faris Saadoon Abed Al-Ageeli,1974-05-20,Iraq,215,225,232,232,240,232,113.6,B,Raw,Open,1
M,107+,2013-05-26,Csaba Szavai,1957-12-21,Hungary,188,-200,-206,188,,188,132.65,B,Raw,Open,4
M,107+,2013-05-26,Petr Filatov,1988-06-20,Russia,190,201,207,207,,207,158.3,B,Raw,Open,3
F,41,2013-05-22,Maryna Kopiika,1991-01-12,Ukraine,75,78,-80,78,,78,40.45,B,Raw,Open,2
F,41,2013-05-22,Tatiana Zhavoronkova,1990-11-18,Russia,-75,-75,-75,,,,38.3,B,Raw,Open,DQ
F,41,2013-05-22,Yulia Vorontsova,1996-05-28,Russia,-63,63,68,68,-72,68,38.4,B,Raw,Open,4
F,41,2013-05-22,Nazmiye Muslu Muratlı,1979-06-13,Turkey,90,-100,100,100,,100,41,B,Raw,Open,1
F,41,2013-05-22,Ebru Basar,1976-01-03,Turkey,76,-80,-80,76,,76,40.7,B,Raw,Open,3
F,45,2013-05-22,Anastasiia Georgitca,1982-03-01,Russia,75,78,-80,78,,78,43.7,B,Raw,Open,4
F,45,2013-05-22,Justyna Kozdryk,1980-03-04,Poland,90,93,-97,93,,93,44.8,B,Raw,Open,1
F,45,2013-05-22,Larisa Berieva,1982-10-18,Russia,-75,75,79,79,,79,43.7,B,Raw,Open,3
F,45,2013-05-22,Rayisa Toporkova,1986-02-18,Ukraine,92,-95,-96,92,,92,44.65,B,Raw,Open,2
F,45,2013-05-22,Anastasiia Kondrashina,1994-04-20,Russia,63,68,-70,68,,68,44.8,B,Raw,Open,5
F,50,2013-05-23,Olesya Lafina,1979-12-05,Russia,110,112,114,114,,114,49.95,B,Raw,Open,1
F,50,2013-05-23,Yasemin Ceylan Baydar,1987-03-10,Turkey,-105,-105,-105,,,,49,B,Raw,Open,DQ
F,50,2013-05-23,Loida Zabala Ollero,1987-04-05,Spain,-95,96,-100,96,,96,49.5,B,Raw,Open,3
F,50,2013-05-23,Anastasiia Mamadamirova,1993-08-02,Russia,93,97,-106,97,,97,49.75,B,Raw,Open,2
F,50,2013-05-23,Zahraa Al Maliki,1997-01-04,Iraq,62,65,-69,65,,65,48.3,B,Raw,Open,5
F,50,2013-05-23,Lidiya Solovyova,1978-01-21,Ukraine,-96,-96,-98,,,,47.6,B,Raw,Open,DQ
F,50,2013-05-23,Irina Galitsyna,1994-08-06,Russia,63,66,68,68,,68,49.25,B,Raw,Open,4
F,55,2013-05-24,Natalie Blake,1982-12-04,UK,85,90,93,93,,93,53.2,B,Raw,Open,2
F,55,2013-05-24,Gharam Alosmanee,1995-04-01,Iraq,-65,65,-69,65,-69,65,54.85,B,Raw,Open,4
F,55,2013-05-24,Lidiia Gladkikh,1994-10-27,Russia,50,55,-64,55,,55,51.25,B,Raw,Open,5
F,55,2013-05-24,Tamara Podpalnaya,1972-01-03,Russia,110,115,-120,115,,115,54.85,B,Raw,Open,1
F,55,2013-05-24,Martina Barbierato,1994-05-24,Italy,60,64,68,68,-70,68,51.4,B,Raw,Open,3
F,61,2013-05-24,Gamze Sayar,1997-05-22,Turkey,-45,45,-57,45,,45,59.35,B,Raw,Open,5
F,61,2013-05-24,Dhikra Saleem,1981-12-29,Iraq,90,-95,-95,90,,90,60.4,B,Raw,Open,2
F,61,2013-05-24,Magdalena Barbara Konior,1976-07-31,Poland,-80,-80,80,80,,80,57.5,B,Raw,Open,4
F,61,2013-05-24,Kheda Berieva,1992-02-28,Russia,-100,-100,100,100,,100,60.9,B,Raw,Open,1
F,61,2013-05-24,Dilfiroz Kuzdagi,1982-01-01,Turkey,75,85,-101,85,,85,58.15,B,Raw,Open,3
F,61,2013-05-24,Cihan Kubilay,1977-06-07,Turkey,-70,-70,-70,,,,59.7,B,Raw,Open,DQ
F,67,2013-05-25,Alina Kumeyko,1997-07-27,Ukraine,87,-92,-92,87,-92,87,66.85,B,Raw,Open,2
F,67,2013-05-25,Larisa Marinenkova,1969-03-07,Moldova,-75,-75,75,75,,75,66.1,B,Raw,Open,3
F,67,2013-05-25,Vera Muratova,1980-07-03,Russia,111,-116,,111,,111,66.25,B,Raw,Open,1
F,73,2013-05-25,Souhad Ghazouani,1982-08-07,France,140,145,150,150,,150,72.7,B,Raw,Open,1
F,79,2013-05-25,Marzena Zieba,1990-03-27,Poland,-105,105,-110,105,,105,78.3,B,Raw,Open,2
F,79,2013-05-25,Olga Kazankevich,1974-06-26,Russia,105,107,-110,107,-110,107,75.75,B,Raw,Open,1
F,79,2013-05-25,Lyubov Semenyuk,1959-05-01,Ukraine,95,100,-108,100,,100,77.5,B,Raw,Open,3
F,86,2013-05-26,Huda Ali,1977-03-03,Iraq,-116,-116,117,117,,117,84.75,B,Raw,Open,1
F,86,2013-05-26,Tatiana Smirnova,1956-08-22,Russia,90,97,102,102,-105,102,79.95,B,Raw,Open,2
F,86+,2013-05-26,Kamilla Maria Rusielewicz,1980-09-11,Poland,110,-115,-116,110,,110,99.95,B,Raw,Open,3
F,86+,2013-05-26,Lyudmila Hreben,1975-03-19,Belarus,115,-118,118,118,,118,101.85,B,Raw,Open,2
F,86+,2013-05-26,Olga Kiseleva,1966-03-31,Russia,-110,115,118,118,,118,86.95,B,Raw,Open,1
F,86+,2013-05-26,Melaica Tuinfort,1990-03-11,Netherlands,-115,-115,-115,,,,94.85,B,Raw,Open,DQ
F,86+,2013-05-26,Polina Katsman,1966-10-07,Israel,93,-97,-97,93,,93,102,B,Raw,Open,4
